Κωδ. Διοικητικής Περιφέρειας	Διοικητική Περιφέρεια
1	Αν. Μακεδονίας & Θράκης
2	Κεντρικής Μακεδονίας
3	Δυτικής Μακεδονίας
4	Ηπείρου
5	Θεσσαλίας
6	Ιονίων Νήσων
7	Δυτικής Ελλάδας
8	Στερεάς Ελλάδας
9	Αττικής
10	Πελοποννήσου
11	Βορείου Αιγαίου
12	Νοτίου Αιγαίου
13	Κρήτης
